Thomas - Trees with R
…
And I also tested how to combine figures - an additional challenge for plotly sunbursts.

Beware: the setting for branchvalues has to be handled carefully.

Code
# simple scale function
scale01 <- function(x){(x-min(x))/(max(x)-min(x))}

# calculate scaled population for each parent (continent)
df <- df %>% group_by(parent) %>% mutate(val_s = scale01(val))

# illustrate the parent-specific scaling for Europe
df %>% filter(parent=="Europe") 

# A tibble: 30 × 4
# Groups:   parent [1]
   label                  parent      val  val_s
   <fct>                  <chr>     <dbl>  <dbl>
 1 Albania                Europe  3600523 0.0402
 2 Austria                Europe  8199783 0.0962
 3 Belgium                Europe 10392226 0.123 
 4 Bosnia and Herzegovina Europe  4552198 0.0518
 5 Bulgaria               Europe  7322858 0.0855
 6 Croatia                Europe  4493312 0.0511
 7 Czech Republic         Europe 10228744 0.121 
 8 Denmark                Europe  5468120 0.0629
 9 Finland                Europe  5238460 0.0601
10 France                 Europe 61083916 0.740 
# ℹ 20 more rows
…
